Link, 0, 0-LINK8-LINK8, 0.000000, 0.000000, 0.000000, topology, 2, 0
Link, 0, 0-LINK8-LINK8, 0.000000, 0.000000, 0.000000, topology, 3, 0
Link, 0, 0-LINK8-LINK8, 0.000000, 0.000000, 0.000000, topology, 0, 1
Link, 0, 0-LINK8-LINK8, 0.000000, 0.000000, 0.000000, topology, 16, 10
Link, 0, 0-LINK8-LINK8, 0.000000, 0.000000, 0.000000, topology, 6, 10
Link, 0, 0-LINK8-LINK8, 0.000000, 0.000000, 0.000000, topology, 10, 11
Link, 0, 0-LINK8-LINK8, 0.000000, 0.000000, 0.000000, topology, 6, 11
Link, 0, 0-LINK8-LINK8, 0.000000, 0.000000, 0.000000, topology, 59, 145
Link, 0, 0-LINK8-LINK8, 0.000000, 0.000000, 0.000000, topology, 0, 16
Link, 0, 0-LINK8-LINK8, 0.000000, 0.000000, 0.000000, topology, 16, 17
Link, 0, 0-LINK8-LINK8, 0.000000, 0.000000, 0.000000, topology, 3, 2
Link, 0, 0-LINK8-LINK8, 0.000000, 0.000000, 0.000000, topology, 4, 3
Link, 0, 0-LINK8-LINK8, 0.000000, 0.000000, 0.000000, topology, 11, 44
Link, 0, 0-LINK8-LINK8, 0.000000, 0.000000, 0.000000, topology, 44, 47
Link, 0, 0-LINK8-LINK8, 0.000000, 0.000000, 0.000000, topology, 9, 4
Link, 0, 0-LINK8-LINK8, 0.000000, 0.000000, 0.000000, topology, 2, 5
Link, 0, 0-LINK8-LINK8, 0.000000, 0.000000, 0.000000, topology, 3, 5
Link, 0, 0-LINK8-LINK8, 0.000000, 0.000000, 0.000000, topology, 17, 54
Link, 0, 0-LINK8-LINK8, 0.000000, 0.000000, 0.000000, topology, 2, 54
Link, 0, 0-LINK8-LINK8, 0.000000, 0.000000, 0.000000, topology, 54, 56
Link, 0, 0-LINK8-LINK8, 0.000000, 0.000000, 0.000000, topology, 56, 59
Link, 0, 0-LINK8-LINK8, 0.000000, 0.000000, 0.000000, topology, 1, 6
Link, 0, 0-LINK8-LINK8, 0.000000, 0.000000, 0.000000, topology, 8, 6
Link, 0, 0-LINK8-LINK8, 0.000000, 0.000000, 0.000000, topology, 9, 6
Link, 0, 0-LINK8-LINK8, 0.000000, 0.000000, 0.000000, topology, 6, 7
Link, 0, 0-LINK8-LINK8, 0.000000, 0.000000, 0.000000, topology, 80, 78
Link, 0, 0-LINK8-LINK8, 0.000000, 0.000000, 0.000000, topology, 78, 79
Link, 0, 0-LINK8-LINK8, 0.000000, 0.000000, 0.000000, topology, 1, 8
Link, 0, 0-LINK8-LINK8, 0.000000, 0.000000, 0.000000, topology, 79, 9
Link, 0, 0-HOST3-LINK8, 0.000000, 0.000000, 0.000000, topology, Bourassa, 145
Link, 0, 0-HOST3-LINK8, 0.000000, 0.000000, 0.000000, topology, Ginette, 145
Link, 0, 0-HOST3-LINK8, 0.000000, 0.000000, 0.000000, topology, Jupiter, 145
Link, 0, 0-HOST3-LINK8, 0.000000, 0.000000, 0.000000, topology, Tremblay, 3
Link, 0, 0-HOST3-LINK8, 0.000000, 0.000000, 0.000000, topology, Bourassa, 47
Link, 0, 0-HOST3-LINK8, 0.000000, 0.000000, 0.000000, topology, Ginette, 47
Link, 0, 0-HOST3-LINK8, 0.000000, 0.000000, 0.000000, topology, Jupiter, 47
Link, 0, 0-HOST3-LINK8, 0.000000, 0.000000, 0.000000, topology, Tremblay, 4
Link, 0, 0-HOST3-LINK8, 0.000000, 0.000000, 0.000000, topology, Fafard, 78
Link, 0, 0-HOST3-LINK8, 0.000000, 0.000000, 0.000000, topology, Fafard, 80
Link, 0, 0-HOST3-LINK8, 0.000000, 0.000000, 0.000000, topology, Tremblay, 9
Link, 0, 0-LINK8-HOST3, 0.000000, 0.000000, 0.000000, topology, 47, Boivin
Link, 0, 0-LINK8-HOST3, 0.000000, 0.000000, 0.000000, topology, 7, Bourassa
Link, 0, 0-LINK8-HOST3, 0.000000, 0.000000, 0.000000, topology, 8, Fafard
Link, 0, 0-LINK8-HOST3, 0.000000, 0.000000, 0.000000, topology, 5, Ginette
Link, 0, 0-LINK8-HOST3, 0.000000, 0.000000, 0.000000, topology, 145, Jacquelin
Link, 0, 0-LINK8-HOST3, 0.000000, 0.000000, 0.000000, topology, 9, Jupiter
Link, 0, MPI_LINK, 42.514725, 42.517222, 0.002497, PTP, rank-17, rank-18
Link, 0, MPI_LINK, 42.507327, 42.520087, 0.012760, PTP, rank-24, rank-25
Link, 0, MPI_LINK, 42.518305, 42.520802, 0.002497, PTP, rank-52, rank-53
Link, 0, MPI_LINK, 42.520681, 42.523178, 0.002497, PTP, rank-3, rank-4
Link, 0, MPI_LINK, 42.527619, 42.530116, 0.002497, PTP, rank-31, rank-32
Link, 0, MPI_LINK, 42.530042, 42.532539, 0.002497, PTP, rank-59, rank-60
Link, 0, MPI_LINK, 42.540281, 42.542778, 0.002497, PTP, rank-10, rank-11
Link, 0, MPI_LINK, 42.513004, 42.546657, 0.033653, PTP, rank-38, rank-39
Link, 0, MPI_LINK, 42.606266, 42.608763, 0.002497, PTP, rank-45, rank-46
Link, 0, MPI_LINK, 44.094647, 44.097592, 0.002945, PTP, rank-35, rank-36
Link, 0, MPI_LINK, 44.124345, 44.127290, 0.002945, PTP, rank-49, rank-50
Link, 0, MPI_LINK, 44.125149, 44.128094, 0.002945, PTP, rank-28, rank-29
Link, 0, MPI_LINK, 44.148374, 44.151319, 0.002945, PTP, rank-14, rank-15
Link, 0, MPI_LINK, 44.149245, 44.152190, 0.002945, PTP, rank-56, rank-57
Link, 0, MPI_LINK, 44.153388, 44.155927, 0.002539, PTP, rank-37, rank-38
Link, 0, MPI_LINK, 42.492976, 44.160315, 1.667339, PTP, rank-36, rank-37
Link, 0, MPI_LINK, 44.162025, 44.164564, 0.002539, PTP, rank-58, rank-59
Link, 0, MPI_LINK, 42.537176, 44.168951, 1.631775, PTP, rank-57, rank-58
Link, 0, MPI_LINK, 44.166998, 44.169537, 0.002539, PTP, rank-2, rank-3
Link, 0, MPI_LINK, 44.169529, 44.172475, 0.002946, PTP, rank-42, rank-43
Link, 0, MPI_LINK, 42.507273, 44.173924, 1.666651, PTP, rank-1, rank-2
Link, 0, MPI_LINK, 44.177965, 44.180910, 0.002945, PTP, rank-7, rank-8
Link, 0, MPI_LINK, 44.179641, 44.182586, 0.002945, PTP, rank-21, rank-22
Link, 0, MPI_LINK, 44.185772, 44.188310, 0.002538, PTP, rank-30, rank-31
Link, 0, MPI_LINK, 42.530272, 44.192698, 1.662426, PTP, rank-29, rank-30
Link, 0, MPI_LINK, 44.199284, 44.201822, 0.002538, PTP, rank-9, rank-10
Link, 0, MPI_LINK, 44.203144, 44.205683, 0.002539, PTP, rank-44, rank-45
Link, 0, MPI_LINK, 42.468899, 44.206210, 1.737311, PTP, rank-8, rank-9
Link, 0, MPI_LINK, 42.482767, 44.210071, 1.727304, PTP, rank-43, rank-44
Link, 0, MPI_LINK, 44.220556, 44.223095, 0.002539, PTP, rank-51, rank-52
Link, 0, MPI_LINK, 42.500485, 44.227482, 1.726997, PTP, rank-50, rank-51
Link, 0, MPI_LINK, 44.229004, 44.231543, 0.002539, PTP, rank-16, rank-17
Link, 0, MPI_LINK, 42.519529, 44.231631, 1.712102, PTP, rank-60, rank-61
Link, 0, MPI_LINK, 44.230312, 44.232851, 0.002539, PTP, rank-23, rank-24
Link, 0, MPI_LINK, 42.517590, 44.235498, 1.717908, PTP, rank-25, rank-26
Link, 0, MPI_LINK, 42.478272, 44.235931, 1.757659, PTP, rank-15, rank-16
Link, 0, MPI_LINK, 42.501927, 44.236657, 1.734730, PTP, rank-4, rank-5
Link, 0, MPI_LINK, 42.494315, 44.237239, 1.742924, PTP, rank-22, rank-23
Link, 0, MPI_LINK, 42.513334, 44.239535, 1.726201, PTP, rank-32, rank-33
Link, 0, MPI_LINK, 42.458089, 44.240974, 1.782885, PTP, rank-53, rank-54
Link, 0, MPI_LINK, 44.210369, 44.241810, 0.031441, PTP, rank-20, rank-21
Link, 0, MPI_LINK, 44.212517, 44.243958, 0.031441, PTP, rank-48, rank-49
Link, 0, MPI_LINK, 42.514405, 44.246496, 1.732091, PTP, rank-18, rank-19
Link, 0, MPI_LINK, 42.484553, 44.247191, 1.762638, PTP, rank-11, rank-12
Link, 0, MPI_LINK, 42.497841, 44.249282, 1.751441, PTP, rank-46, rank-47
Link, 0, MPI_LINK, 42.544160, 44.249648, 1.705488, PTP, rank-39, rank-40
Link, 0, MPI_LINK, 44.219876, 44.251316, 0.031440, PTP, rank-41, rank-42
Link, 0, MPI_LINK, 44.220346, 44.251786, 0.031440, PTP, rank-55, rank-56
Link, 0, MPI_LINK, 44.239715, 44.271155, 0.031440, PTP, rank-13, rank-14
Link, 0, MPI_LINK, 44.239901, 44.271341, 0.031440, PTP, rank-34, rank-35
Link, 0, MPI_LINK, 44.240512, 44.271952, 0.031440, PTP, rank-62, rank-63
Link, 0, MPI_LINK, 44.244111, 44.275551, 0.031440, PTP, rank-6, rank-7
Link, 0, MPI_LINK, 44.249045, 44.280485, 0.031440, PTP, rank-27, rank-28
Link, 0, MPI_LINK, 44.382003, 44.384952, 0.002949, PTP, rank-0, rank-1
Link, 0, MPI_LINK, 44.238703, 44.402328, 0.163625, PTP, rank-33, rank-34
Link, 0, MPI_LINK, 44.240142, 44.402569, 0.162427, PTP, rank-54, rank-55
Link, 0, MPI_LINK, 44.230796, 44.402939, 0.172143, PTP, rank-61, rank-62
Link, 0, MPI_LINK, 44.235824, 44.406538, 0.170714, PTP, rank-5, rank-6
Link, 0, MPI_LINK, 44.245666, 44.408093, 0.162427, PTP, rank-19, rank-20
Link, 0, MPI_LINK, 44.246361, 44.408788, 0.162427, PTP, rank-12, rank-13
Link, 0, MPI_LINK, 44.248453, 44.410880, 0.162427, PTP, rank-47, rank-48
Link, 0, MPI_LINK, 44.248819, 44.411246, 0.162427, PTP, rank-40, rank-41
Link, 0, MPI_LINK, 44.234664, 44.411471, 0.176807, PTP, rank-26, rank-27
