MPI_Iprobe,1,9.783133,5.551000e-06
MPI_Iprobe,1,9.783148,3.022000e-06
MPI_Iprobe,1,9.783154,9.710000e-07
MPI_Iprobe,1,9.783156,5.410000e-07
MPI_Iprobe,1,9.783157,6.560000e-07
MPI_Iprobe,1,9.783159,2.140000e-07
MPI_Iprobe,1,9.783161,5.630000e-07
MPI_Iprobe,1,9.783162,5.760000e-07
MPI_Iprobe,1,9.783164,1.780000e-07
MPI_Iprobe,1,9.783165,5.270000e-07
MPI_Iprobe,1,9.783167,6.170000e-07
MPI_Iprobe,1,9.783168,1.760000e-07
MPI_Iprobe,1,9.783170,6.930000e-07
MPI_Iprobe,1,9.783171,1.530000e-07
MPI_Iprobe,1,9.783173,5.750000e-07
MPI_Iprobe,1,9.783174,5.770000e-07
MPI_Iprobe,1,9.783176,1.510000e-07
MPI_Iprobe,1,9.783177,5.220000e-07
MPI_Iprobe,1,9.783179,6.410000e-07
MPI_Iprobe,1,9.783180,1.820000e-07
MPI_Iprobe,1,9.783181,4.960000e-07
MPI_Iprobe,1,9.783183,6.260000e-07
MPI_Iprobe,1,9.783184,1.400000e-07
MPI_Iprobe,1,9.783186,5.140000e-07
MPI_Iprobe,1,9.783187,5.720000e-07
MPI_Iprobe,1,9.783189,1.450000e-07
MPI_Iprobe,1,9.783190,6.500000e-07
MPI_Iprobe,1,9.783192,1.440000e-07
MPI_Iprobe,10,9.783193,5.620000e-07
MPI_Iprobe,10,9.783195,6.330000e-07
MPI_Iprobe,10,9.783196,1.780000e-07
MPI_Iprobe,10,9.783198,5.280000e-07
MPI_Iprobe,10,9.783199,6.040000e-07
MPI_Iprobe,10,9.783201,1.400000e-07
MPI_Iprobe,10,9.783202,7.020000e-07
MPI_Iprobe,10,9.783204,1.440000e-07
MPI_Iprobe,10,9.783205,5.220000e-07
MPI_Iprobe,10,9.783207,6.590000e-07
MPI_Iprobe,10,9.783208,1.590000e-07
MPI_Iprobe,10,9.783209,6.270000e-07
MPI_Iprobe,10,9.783211,1.440000e-07
MPI_Iprobe,10,9.783212,6.990000e-07
MPI_Iprobe,10,9.783214,1.950000e-07
MPI_Iprobe,10,9.783215,5.190000e-07
MPI_Iprobe,10,9.783217,5.970000e-07
MPI_Iprobe,10,9.783218,1.360000e-07
MPI_Iprobe,10,9.783219,4.820000e-07
MPI_Iprobe,10,9.783221,5.790000e-07
MPI_Iprobe,10,9.783222,1.390000e-07
MPI_Iprobe,10,9.783224,4.680000e-07
MPI_Iprobe,10,9.783225,5.690000e-07
MPI_Iprobe,10,9.783226,1.430000e-07
MPI_Iprobe,10,9.783228,4.790000e-07
MPI_Iprobe,10,9.783229,6.590000e-07
MPI_Iprobe,10,9.783231,1.400000e-07
MPI_Iprobe,100,9.783232,5.280000e-07
MPI_Iprobe,100,9.783234,6.600000e-07
MPI_Iprobe,100,9.783235,1.540000e-07
MPI_Iprobe,100,9.783237,4.720000e-07
MPI_Iprobe,100,9.783238,5.950000e-07
MPI_Iprobe,100,9.783240,1.390000e-07
MPI_Iprobe,100,9.783241,4.900000e-07
MPI_Iprobe,100,9.783242,6.320000e-07
MPI_Iprobe,100,9.783244,1.740000e-07
MPI_Iprobe,100,9.783245,4.840000e-07
MPI_Iprobe,100,9.783247,6.300000e-07
MPI_Iprobe,100,9.783248,1.380000e-07
MPI_Iprobe,100,9.783250,4.720000e-07
MPI_Iprobe,100,9.783251,6.380000e-07
MPI_Iprobe,100,9.783252,1.430000e-07
MPI_Iprobe,100,9.783254,4.880000e-07
MPI_Iprobe,100,9.783255,6.570000e-07
MPI_Iprobe,100,9.783257,1.770000e-07
MPI_Iprobe,100,9.783258,5.020000e-07
MPI_Iprobe,100,9.783259,6.420000e-07
MPI_Iprobe,100,9.783261,1.780000e-07
MPI_Iprobe,100,9.783262,4.870000e-07
MPI_Iprobe,100,9.783264,5.800000e-07
MPI_Iprobe,100,9.783265,1.390000e-07
MPI_Iprobe,100,9.783266,6.430000e-07
MPI_Iprobe,100,9.783268,1.470000e-07
MPI_Iprobe,100,9.783269,6.260000e-07
MPI_Iprobe,100,9.783271,1.410000e-07
MPI_Iprobe,1000,9.783273,5.540000e-07
MPI_Iprobe,1000,9.783274,1.868000e-06
MPI_Iprobe,1000,9.783277,1.940000e-07
MPI_Iprobe,1000,9.783279,5.440000e-07
MPI_Iprobe,1000,9.783280,4.580000e-07
MPI_Iprobe,1000,9.783282,4.620000e-07
MPI_Iprobe,1000,9.783283,7.480000e-07
MPI_Iprobe,1000,9.783285,1.440000e-07
MPI_Iprobe,1000,9.783286,5.020000e-07
MPI_Iprobe,1000,9.783287,7.110000e-07
MPI_Iprobe,1000,9.783289,1.620000e-07
MPI_Iprobe,1000,9.783291,4.980000e-07
MPI_Iprobe,1000,9.783292,7.140000e-07
MPI_Iprobe,1000,9.783294,1.550000e-07
MPI_Iprobe,1000,9.783295,5.200000e-07
MPI_Iprobe,1000,9.783297,7.390000e-07
MPI_Iprobe,1000,9.783298,1.810000e-07
MPI_Iprobe,1000,9.783300,4.990000e-07
MPI_Iprobe,1000,9.783301,7.400000e-07
MPI_Iprobe,1000,9.783303,1.790000e-07
MPI_Iprobe,1000,9.783304,4.740000e-07
MPI_Iprobe,1000,9.783306,6.690000e-07
MPI_Iprobe,1000,9.783307,1.440000e-07
MPI_Iprobe,1000,9.783309,5.180000e-07
MPI_Iprobe,1000,9.783310,7.440000e-07
MPI_Iprobe,1000,9.783312,1.910000e-07
MPI_Iprobe,1000,9.783313,5.140000e-07
MPI_Iprobe,1000,9.783315,7.300000e-07
MPI_Iprobe,1000,9.783316,1.630000e-07
MPI_Iprobe,1000,9.783318,5.150000e-07
MPI_Iprobe,1000,9.783326,7.439000e-06
MPI_Iprobe,1000,9.783336,4.710000e-07
MPI_Iprobe,10000,9.783347,1.804000e-06
MPI_Iprobe,10000,9.783351,2.370000e-07
MPI_Iprobe,10000,9.783360,1.135000e-06
MPI_Iprobe,10000,9.783362,1.950000e-07
MPI_Iprobe,10000,9.783368,1.065000e-06
MPI_Iprobe,10000,9.783371,1.840000e-07
MPI_Iprobe,10000,9.783377,1.086000e-06
MPI_Iprobe,10000,9.783379,1.810000e-07
MPI_Iprobe,10000,9.783385,1.090000e-06
MPI_Iprobe,10000,9.783388,1.650000e-07
MPI_Iprobe,10000,9.783394,1.066000e-06
MPI_Iprobe,10000,9.783396,1.680000e-07
MPI_Iprobe,10000,9.783402,1.107000e-06
MPI_Iprobe,10000,9.783404,1.750000e-07
MPI_Iprobe,10000,9.783410,1.066000e-06
MPI_Iprobe,10000,9.783412,1.620000e-07
MPI_Iprobe,10000,9.783419,1.026000e-06
MPI_Iprobe,10000,9.783421,1.640000e-07
MPI_Iprobe,10000,9.783427,1.083000e-06
MPI_Iprobe,10000,9.783429,1.660000e-07
